Full
 
C1s
1
310.0000
-0.1250
241
3640.8594
3556.5583
3561.2896
3606.4507
3543.2251
3528.1711
3555.2681
3628.8164
3560.4292
3564.7305
3548.8164
3587.9563
3607.3110
3559.5691
3587.9563
3597.4185
3575.0530
3596.5583
3667.5261
3583.6550
3561.2896
3616.7734
3598.2788
3604.7305
3605.1604
3534.6228
3570.3218
3602.1497
3548.3862
3591.3970
3610.7520
3653.7627
3521.7197
3565.1604
3565.5906
3582.7949
3590.1067
3594.8379
3523.0100
3548.3862
3588.8164
3507.0959
3544.0852
3532.4724
3585.3755
3617.2034
3574.1926
3547.9563
3563.0100
3576.3433
3590.9670
3504.9456
3560.4292
3533.7627
3553.9778
3527.7412
3501.9348
3493.7627
3470.9670
3430.5369
3469.2466
3473.5476
3424.9456
3559.1389
3469.2466
3510.5369
3422.7949
3368.1714
3355.6982
3411.6121
3435.2681
3399.1389
3390.9670
3488.1711
3403.0100
3356.9885
3378.4939
3430.1067
3392.2573
3353.9778
3425.3755
3372.9023
3349.2466
3418.0637
3378.9241
3373.3325
3328.1714
3391.8271
3358.2788
3366.4509
3313.5476
3346.6660
3350.5369
3290.3218
3317.8486
3262.3647
3284.7305
3343.2251
3325.5906
3240.4294
3196.1284
3418.9241
3329.0315
3288.1714
3187.5261
3281.2896
3279.9993
3290.7520
3194.8379
3278.7090
3236.1284
3194.8379
3259.3540
3215.0530
3288.1714
3223.6553
3226.2358
3267.9563
3226.2358
3237.4187
3256.3433
3233.5476
3257.2036
3202.5798
3272.6875
3285.5906
3247.3110
3253.3325
3261.5046
3190.1067
3261.5046
3219.7842
3223.2251
3239.1392
3274.8379
3232.2573
3273.9778
3232.2573
3243.8701
3326.8809
3380.2144
3285.1606
3305.3755
3372.0422
3387.5261
3380.6443
3459.7842
3509.6765
3575.4832
3625.8057
3745.3755
3867.9561
3986.2356
4123.0098
4103.6548
4242.1494
4392.2568
4544.9453
4613.7622
4726.8809
4886.0205
5002.1494
5120.8589
5351.8267
5541.0742
5581.0742
5811.1816
5939.7837
6259.7837
6562.5791
6846.4502
7135.4824
7484.2993
7794.4067
8316.9873
8623.6543
8999.1377
9229.6758
9490.3203
9635.6963
9787.5244
9813.7607
10018.4922
9980.6426
10061.5029
10158.2773
10291.1807
9921.2881
9735.4814
9397.8477
9083.0088
8481.2881
7931.6113
7311.8262
6795.2671
6125.1597
5600.4287
5125.1602
4672.2568
4399.9990
4084.7302
3877.4185
3709.2466
3547.0959
3439.5691
3372.0422
3291.1821
3175.9133
3177.2036
3176.7734
3128.6016
3112.2573
3066.6660
3068.3865
3009.0315
3062.3650
3066.2358
3058.4939
3088.6016
3055.9133
3044.7305
3049.4617
2975.9133
3021.9348
3000.4294
2944.5154
3042.5801
3030.9670
3001.7197
3018.4939
3039.5691
2970.3220
3055.0530
3034.8381
3078.7090
2965.5908
3024.5154
3047.3110
3006.8811
2958.7090
3034.4080

Full
 
O1s
1
545.0000
-0.1250
161
7133.7617
7016.3423
7063.6543
6956.1274
6901.9341
6938.9233
6812.0415
6749.6758
6609.8911
6515.2676
6568.6006
6473.9771
6246.4502
6308.3857
6195.6978
6148.3857
6139.3535
6042.1494
5978.9233
5974.6221
5883.8696
5909.2461
5864.9448
5919.5684
5901.5039
5763.4395
5808.1709
5807.3105
5807.7407
5658.9233
5845.1602
5669.6763
5740.6440
5691.6118
5778.0630
5663.2246
5693.3320
5770.7515
5686.8804
5628.3857
5713.9771
5667.9556
5757.4180
5781.0737
5787.5254
5776.3428
5773.7622
5695.0522
5796.1279
5805.1602
5830.9663
5892.0415
5954.4072
5892.4717
6007.3105
6016.7729
5988.8159
6073.9771
6168.1704
6221.9341
6327.3105
6325.5898
6632.2563
6486.4502
6698.4932
6668.3857
6891.1812
6972.0415
7184.0845
7285.1597
7506.6650
7719.9980
7954.4067
8304.9443
8670.9658
8966.0195
9525.5889
10160.4277
10862.3633
11742.7930
12940.6426
14240.4268
15883.4375
18072.6836
20498.4902
23287.7363
26894.6172
30666.2305
34734.1875
38695.4766
42688.1641
45926.8711
48269.2383
49707.0859
49502.7852
48529.4531
46015.9023
42756.5508
39070.5273
34933.3242
31006.0137
27387.0898
24190.9629
21912.6836
19454.6191
17566.8770
15962.5771
14547.5234
13252.4697
12203.4385
11220.2129
10211.6104
9437.8477
8865.8047
8142.7939
7560.8584
7078.2778
6722.1489
6367.7407
6134.6221
5870.9663
5570.7515
5448.6011
5286.8804
5123.8696
5080.4292
5009.8911
4903.6548
4763.8701
4755.6978
4730.3213
4709.2461
4639.9990
4658.0635
4562.5796
4522.1494
4538.9238
4486.4507
4604.7300
4418.9238
4480.8594
4477.8486
4451.6118
4378.4937
4461.0742
4399.9990
4386.6655
4356.1279
4398.7085
4266.6655
4324.3003
4366.4507
4246.0205
4340.6440
4328.1709
4268.3862
4379.7842
4316.5581
4263.6548
4312.2573
4243.8701

Full
 
Si2p
1
115.0000
-0.1250
161
2408.1714
2421.0747
2409.4619
2332.9026
2398.2791
2435.2683
2340.6445
2430.1069
2323.0103
2415.0532
2325.1606
2364.3005
2367.3113
2334.1931
2338.9243
2389.2468
2377.6338
2346.6660
2390.5371
2334.6230
2322.1499
2321.2898
2370.3220
2272.6877
2302.3650
2310.5371
2372.9026
2326.0210
2309.6770
2364.7307
2319.5693
2293.3328
2298.0640
2321.7200
2247.3113
2277.8489
2273.5479
2301.0747
2276.1284
2265.3757
2264.9458
2245.1609
2233.1177
2276.5586
2284.3005
2286.0210
2262.3650
2254.1931
2258.0640
2279.1392
2274.8381
2299.7844
2252.4727
2316.9888
2310.9673
2361.2898
2393.9780
2451.1821
2483.0103
2578.4941
2646.4509
2808.6016
2932.4724
3171.1821
3502.3647
3876.5583
4291.1816
4829.6763
5449.4609
6061.0737
6829.6758
7675.6973
8464.0840
9088.1699
9670.9658
10073.1162
10243.8691
10311.3955
10117.8477
9609.0303
8962.1484
8111.8262
7155.6973
6404.2998
5559.1387
4838.7085
4283.8701
3736.7734
3329.0315
3118.7090
2948.3865
2710.9670
2598.7090
2467.0962
2424.9458
2348.3865
2279.5693
2214.6230
2155.6985
2073.5479
2090.7522
2043.4404
2027.5264
1976.3436
1942.3651
1959.5695
1955.2684
1961.2899
1910.9673
1925.5909
1883.8705
1896.3436
1885.5909
1864.9458
1874.8383
1893.3329
1863.2253
1859.3544
1874.8383
1871.8275
1820.6448
1797.8490
1790.5372
1830.1071
1819.7845
1807.3114
1772.4728
1816.7738
1778.4943
1806.0211
1834.8383
1790.9673
1743.6555
1732.9028
1744.5157
1759.9996
1761.2899
1739.3545
1755.6985
1692.0426
1702.3652
1722.5802
1761.7201
1780.6448
1702.7953
1751.3975
1728.6018
1728.1716
1759.1394
1751.3975
1711.8275
1703.2255
1711.8275
1811.1824
1741.0748
1739.3545
1798.2792
1763.0104
1753.5480
1777.2039
1749.6770

Full
 
Al2p
1
88.0000
-0.1250
161
1978.0641
1961.2899
1952.2576
1982.7953
2001.2899
2107.9565
2212.9028
2259.7844
2538.9241
2790.5371
3097.6338
3452.4724
3894.6228
4576.3433
5088.1709
5730.7515
5958.7085
6046.4502
5818.0630
5276.1279
4621.0742
4083.0098
3358.2788
2810.7520
2451.6123
2136.7737
1886.4512
1703.6555
1623.6555
1545.8062
1474.4083
1417.6340
1422.3652
1383.2255
1331.6125
1306.6664
1279.1395
1311.3976
1254.1932
1263.2255
1252.0427
1193.5481
1181.0750
1240.8600
1209.4620
1190.1073
1130.7524
1165.1610
1175.9137
1137.6342
1183.2256
1173.3330
1112.2578
1118.7095
1135.0535
1122.5804
1153.5481
1174.1932
1134.6234
1127.3115
1154.4083
1105.3761
1150.1073
1126.4514
1146.6664
1129.4622
1131.6127
1148.3868
1128.6019
1137.2041
1119.9998
1147.5266
1162.5803
1160.4298
1173.3330
1134.1932
1134.6234
1160.4298
1168.6019
1159.9998
1192.6879
1176.3439
1238.2793
1207.7417
1254.1932
1286.0212
1299.7847
1310.1072
1314.4083
1334.1932
1326.8815
1364.3008
1361.7201
1293.7632
1273.5481
1281.2900
1236.9890
1196.5588
1236.5588
1209.0320
1183.2256
1200.4298
1193.1180
1157.8492
1158.7095
1141.0750
1110.5374
1197.4191
1178.9244
1170.7524
1091.6127
1140.6449
1098.4944
1109.2471
1097.2041
1164.3008
1113.5481
1082.1503
1097.2041
1132.0427
1116.9890
1068.3868
1096.7739
1084.7310
1086.0212
1085.5912
1129.8922
1076.9890
1111.8278
1095.0535
1115.6987
1078.2793
1106.2363
1079.9998
1106.6664
1095.0535
1055.9137
1076.9890
1113.1180
1096.3439
1021.0750
1037.8492
1106.6664
1061.0751
1098.4944
1072.2578
1087.3115
1070.1073
1087.3115
1075.6987
1029.6772
1087.3115
1055.0535
1092.9030
1047.3116
1069.6771
1070.9675
1076.9890
1061.5051
1051.6127
1079.9998

Full
 
Al2s
1
133.0000
-0.1250
161
2961.7197
2985.3757
2944.9456
2944.9456
2933.3328
2967.7412
2981.0747
3058.9241
3005.5908
2981.9348
3027.0962
2961.7197
3045.5908
3083.4402
3043.8704
3081.2896
3077.8489
3041.2896
3057.6338
3070.9670
3074.8381
3096.3435
3100.6445
3093.3325
3064.0854
3051.1821
3147.9563
3130.7520
3092.4724
3078.2788
3107.5261
3090.7520
3132.4724
3161.7197
3196.5583
3154.8379
3096.3435
3137.6338
3150.9670
3174.6230
3161.7197
3192.6875
3162.5798
3175.4832
3207.3110
3103.6553
3166.4509
3174.6230
3167.3110
3075.6982
3171.1821
3124.7305
3120.4294
3138.4939
3155.2681
3132.4724
3111.8271
3112.6875
3174.6230
3075.2681
3087.3110
3140.6445
3121.7197
3091.6123
3150.9670
3102.3650
3083.4402
3086.0208
3073.5476
3045.1606
3078.7090
3000.4294
3098.0637
3021.5046
3012.0422
3030.5369
3009.8918
3082.5798
3044.3003
3013.7627
3011.6123
3064.0854
3069.2466
3026.6660
3034.4080
3083.4402
3023.6553
3064.0854
3031.8274
3105.3757
3011.1821
3107.9563
3069.6768
3124.3003
3037.8489
3062.3650
3051.6123
3044.7305
2964.3003
2978.0640
2984.0854
2979.3542
2917.8489
2862.3650
2862.3650
2887.3113
2839.1392
2718.2791
2789.2466
2790.9670
2766.8811
2763.0100
2735.4832
2691.6123
2732.9026
2709.6768
2707.9563
2686.4509
2612.4724
2703.6553
2596.5586
2597.8489
2649.0317
2633.5479
2627.5264
2632.2576
2657.6338
2590.9670
2566.8811
2602.5801
2550.5371
2569.0317
2536.3435
2510.5371
2516.1284
2525.5908
2527.3113
2494.1929
2482.1499
2433.5479
2378.4941
2492.4727
2472.2576
2448.1714
2424.5156
2480.8596
2395.6985
2435.6985
2395.2683
2364.7307
2367.3113
2361.2898
2366.4512
2382.3650
2355.2683
2436.1284
2337.2039
2424.9458
2344.5156
2383.2253
2356.9888

Full
 
Pd3d
1
352.0000
-0.1250
161
5926.0200
5858.0630
5834.4072
5929.8911
5831.8267
5942.7944
5868.8159
5761.7192
5716.1279
5781.9341
5752.2568
5720.8589
5655.0522
5728.6011
5732.9019
5685.5903
5758.2783
5716.5576
5690.3213
5775.0522
5813.7622
5857.2031
5855.4824
5857.6333
5980.6440
5861.9341
5910.9663
5855.4824
5839.9985
5816.7729
5916.1279
5812.9019
5936.3428
5857.2031
5832.2568
5862.3643
5858.0630
5920.4287
5791.8267
5899.7837
5817.2031
5974.1924
6121.2891
6135.4824
6279.5684
6341.9341
6520.8589
6552.2563
6826.2349
7060.6436
7227.0952
7420.2134
7595.6973
7778.0630
7967.3101
8006.4497
8121.2886
8126.4497
7963.0088
7929.4604
7744.5142
7565.1597
7518.7080
7393.9771
7469.2456
7343.2241
7401.7188
7425.3745
7501.9336
7645.1597
7895.4819
8101.9336
8308.3848
8749.2451
9158.2773
9462.7939
10052.4707
10348.3848
10729.0303
10979.7822
11147.5244
11040.8574
10836.5566
10502.3633
10046.8799
9541.0732
9121.7188
8752.6865
8481.2881
8347.9551
8139.3530
8126.0195
8381.0732
8604.7295
8861.0732
8934.6221
9272.6865
9244.2988
9161.2881
9004.7295
8815.9121
8556.5576
8261.5039
8020.2134
7762.5791
7662.3638
7498.4932
7413.3315
7491.1812
7517.4175
7721.2886
7923.4390
8276.1270
8684.2988
9151.8262
9691.1807
10171.1807
10944.5137
11604.7285
12294.6211
12897.2012
13248.5996
13424.0830
13263.2227
12915.6963
12296.7715
11556.5566
10641.2881
9716.9873
8713.1162
7873.5464
7048.1704
6482.5791
5838.2783
5399.9990
5125.1602
4835.2676
4617.2031
4482.5796
4413.3325
4361.2896
4264.5151
4199.5688
4115.2681
4007.7410
3979.3540
3970.3218
3887.7410
3835.6980
3724.7302
3793.1174
3754.8379
3716.1282
3615.0530
3693.3325
3611.1819
3593.9778
3622.7949
3567.3110
3554.8379
3523.4402

Full
 
Pd3p3
1
548.0000
-0.1250
161
8181.5034
8204.7295
8267.5254
8144.0840
8018.0625
8074.4067
8043.0088
7993.9766
7883.8691
7866.2349
7866.2349
7790.9658
7760.4282
7770.7510
7689.8906
7545.8047
7543.6543
7527.7402
7431.8262
7404.7295
7437.4175
7384.0845
7325.1597
7147.0952
7102.3638
7057.2026
7036.1274
7000.8584
6925.1597
6896.7725
6784.9448
6808.1704
6518.7080
6639.5684
6426.6650
6370.7515
6415.9126
6322.1489
6258.4932
6174.6221
6128.6006
6079.1382
5913.9771
5995.6978
5899.3535
5952.6870
5985.8052
5808.1709
5837.4180
5841.2891
5849.8911
5843.8696
5702.7944
5725.5903
5725.1602
5751.8267
5705.8052
5707.0957
5684.7300
5741.9341
5684.2998
5726.8804
5824.9448
5767.3105
5819.3535
5789.6763
5699.7837
5779.7837
5728.1709
5840.8589
5802.5791
5782.3643
5766.4502
5791.3965
5892.9019
5861.5039
5881.2891
5899.7837
5946.6655
6042.5791
6177.6328
6147.5254
6089.8911
6272.6865
6508.8159
6455.0522
6375.9126
6492.0415
6752.6865
6788.8154
6889.0308
7030.5361
7213.7617
7347.9556
7458.4932
7736.3423
7976.3423
8238.7080
8516.1270
9000.8584
9375.0518
10051.1807
10717.8467
11759.5674
13085.1582
14196.9863
16035.6953
18166.8770
20733.7578
23423.6504
26930.7461
30716.1230
34785.3672
38552.6797
42734.6133
46071.8164
48602.1406
49772.0313
49608.5898
48724.2891
46012.0313
42862.3555
38815.0469
34958.7031
30907.5195
27653.7578
24298.9199
21776.7695
19613.3281
17679.1367
16079.5664
14625.8027
13211.6104
12388.3848
11192.6855
10243.0088
9316.1270
8783.6543
8128.1704
7587.9551
7127.7402
6685.5898
6366.0200
6076.1274
5856.7729
5615.4824
5457.6333
5285.1602
5093.7622
5135.0527
4946.6655
4970.3213
4870.9668
4696.3433
4790.5366
4675.2676
4621.0742
4548.3862
4601.2891
4535.9131
4535.4829

Full
 
Au4f
1
100.0000
-0.1250
161
1805.5909
1824.9458
1844.7307
1771.1824
1812.9028
1788.3867
1762.1501
1816.3436
1802.1501
1795.6985
1722.5802
1806.4512
1807.3114
1744.9458
1771.6125
1795.6985
1760.4297
1761.7201
1779.3545
1799.9996
1744.5157
1759.5695
1763.8706
1743.6555
1741.5050
1751.3975
1787.5265
1774.1931
1692.4728
1743.6555
1743.2255
1785.8060
1762.1501
1787.0963
1740.2147
1761.2899
1747.5265
1758.2792
1751.8275
1719.5695
1763.0104
1769.8921
1770.3221
1788.3867
1770.3221
1710.1072
1768.1716
1767.3114
1810.7523
1772.4728
1738.9243
1790.1072
1796.5587
1809.0319
1792.6877
1795.6985
1817.6340
1790.9673
1829.2469
1889.4619
1810.7523
1885.5909
1903.2253
1917.4189
1923.0104
1898.9243
1972.0426
2023.2253
2019.7845
2021.5049
2086.8813
2186.2361
2290.7522
2336.7737
2473.1177
2698.9241
2831.3972
3130.3218
3520.8594
3798.2788
4363.0098
4701.5044
5104.5151
5400.8589
5412.9019
5080.8589
4641.2891
4230.5366
3712.2573
3336.3433
2826.6660
2658.9241
2321.2898
2244.7307
2063.2253
2013.7629
1946.2361
1972.0426
1951.8275
1966.8812
2025.8060
2056.3435
2159.1394
2372.4727
2446.0210
2725.1606
3058.0637
3469.6768
3959.1389
4607.3105
5204.2998
5664.9448
5963.0093
6062.3643
5834.4072
5333.7622
4661.9346
4130.3218
3455.0530
2905.3757
2416.3435
2126.8813
1865.3760
1713.5480
1583.6555
1541.5050
1415.0535
1412.4728
1377.6342
1310.5374
1292.9030
1296.7739
1274.8384
1258.0642
1217.6342
1214.1932
1217.2040
1230.9674
1159.9998
1154.8385
1218.9244
1145.3761
1200.4298
1162.5803
1143.2256
1141.0750
1144.5159
1160.8600
1164.3008
1143.6556
1146.2363
1149.6771
1141.5051
1131.6127
1154.8385
1148.3868
1138.9244
1109.6771
1129.8922
1116.1288
1138.0642

Full
 
N1s
1
414.0000
-0.1250
161
5593.9771
5599.1387
5590.1064
5491.6118
5650.3213
5563.8696
5550.9663
5547.0957
5556.1279
5525.1602
5595.6978
5512.2568
5514.8374
5548.8159
5586.2354
5457.6333
5512.6870
5552.6870
5624.9448
5528.1709
5549.2461
5502.7944
5568.1709
5490.7515
5454.6226
5524.2998
5573.7622
5527.3105
5519.9985
5532.0420
5527.7407
5492.9019
5553.5474
5530.7515
5500.2139
5532.9019
5584.9448
5631.3965
5513.9771
5455.9126
5561.7192
5532.4717
5470.9663
5525.5903
5639.9985
5481.2891
5599.5688
5590.1064
5560.4287
5574.1924
5567.7407
5547.5254
5570.7515
5593.1172
5630.5361
5513.1172
5658.9233
5580.6440
5593.5474
5597.8481
5631.3965
5523.0093
5679.9985
5525.5903
5584.9448
5456.3428
5616.7729
5504.5146
5613.3320
5578.9233
5529.8911
5584.9448
5622.7944
5549.6763
5641.7192
5652.4717
5639.5688
5681.7192
5593.1172
5658.4932
5780.6440
5771.6118
5750.1064
5863.6548
5865.8052
5870.9663
5862.7944
6005.5898
6217.6328
6259.7837
6358.7080
6525.1597
6799.5684
6955.6973
7184.9448
7588.3853
7743.6543
8026.2349
8368.6006
8535.0518
8679.9980
8891.6113
8976.3418
8991.3955
8713.5469
8570.3203
8551.8262
8344.9443
8192.2559
7969.4604
7738.9229
7451.6113
7417.6328
7146.6650
6843.0093
6673.1167
6609.0308
6395.6973
6291.1812
6187.9556
6141.9341
6165.1597
5966.4502
5883.4395
5906.6655
5830.9663
5836.1279
5756.5576
5770.7515
5737.2031
5750.9663
5634.4072
5657.2031
5610.7515
5610.3213
5677.4180
5635.6978
5526.0200
5613.7622
5519.9985
5572.4717
5534.1924
5583.2246
5621.9341
5606.8804
5578.9233
5618.9233
5599.9985
5652.4717
5608.1709
5612.9019
5663.6548
5602.5796
5536.3428
5607.3105
5575.9126
5514.8374
5619.3535
5678.7085
5551.8267
5604.7300

